Hw-04-Fifo-Implementation/dump.vcd
$date
	Tue Feb 25 14:42:50 2025
$end
$version
	Bluespec VCD dumper 2.1
$end
$timescale
	1 us
$end
$scope module main $end
$scope module top $end
$var reg 1 ! CLK $end
$var reg 1 ! CLK $end
$var reg 1 " RST_N $end
$var reg 32 # b__h178 $end
$var reg 32 $ b__h213 $end
$var reg 32 % b__h216 $end
$var reg 32 ) reg_input_1 $end
$var reg 32 * reg_input_2 $end
$var reg 32 + rg_counter $end
$scope module fifo_inst $end
$var reg 1 ! CLK $end
$var reg 1 , RST_N $end
$scope module fifo_1 $end
$var reg 1 ! CLK $end
$var reg 1 / RST $end
$var reg 1 0 FULL_N $end
$var reg 1 1 EMPTY_N $end
$var reg 1 2 ENQ $end
$var reg 32 3 D_IN $end
$var reg 1 4 DEQ $end
$var reg 1 5 CLR $end
$var reg 32 6 D_OUT $end
$var reg 32 6 arr_0 $end
$var reg 32 7 arr_1 $end
$upscope $end
$scope module fifo_2 $end
$var reg 1 ! CLK $end
$var reg 1 8 RST $end
$var reg 1 9 FULL_N $end
$var reg 1 : EMPTY_N $end
$var reg 1 ; ENQ $end
$var reg 32 < D_IN $end
$var reg 1 = DEQ $end
$var reg 1 > CLR $end
$var reg 32 ? D_OUT $end
$var reg 32 ? arr_0 $end
$var reg 32 @ arr_1 $end
$upscope $end
$upscope $end
$upscope $end
$upscope $end
$enddefinitions $end
b0 #
b10 $
b11 %
12
b10 3
04
05
1;
b11 <
0=
0>
#10
$dumpvars
14
1=
1!
1"
b10 )
b11 *
b0 +
1,
1/
10
11
b10 6
bx 7
18
19
1:
b11 ?
bx @
$end
#15
0!
#20
b1 #
b100 $
b110 %
b100 3
b110 <
1!
b100 )
b110 *
b1 +
#25
0!
#30
b10 #
b1000 $
b1100 %
b1000 3
b1100 <
1!
b1000 )
b1100 *
b10 +
b100 6
b110 ?
#35
0!
#40
b11 #
b10000 $
b11000 %
b10000 3
b11000 <
1!
b10000 )
b11000 *
b11 +
b1000 6
b1100 ?
#45
0!
#50
b100 #
b100000 $
b110000 %
b100000 3
b110000 <
1!
b100000 )
b110000 *
b100 +
b10000 6
b11000 ?
#55
0!
#60
b101 #
b1000000 $
b1100000 %
b1000000 3
b1100000 <
1!
b1000000 )
b1100000 *
b101 +
b100000 6
b110000 ?
#65
0!
#70
b110 #
b10000000 $
b11000000 %
b10000000 3
b11000000 <
1!
b10000000 )
b11000000 *
b110 +
b1000000 6
b1100000 ?
#75
0!
#80
b111 #
b100000000 $
b110000000 %
b100000000 3
b110000000 <
1!
b100000000 )
b110000000 *
b111 +
b10000000 6
b11000000 ?
#85
0!
#90
b1000 #
b1000000000 $
b1100000000 %
b1000000000 3
b1100000000 <
1!
b1000000000 )
b1100000000 *
b1000 +
b100000000 6
b110000000 ?
#95
0!
#100
b1001 #
b10000000000 $
b11000000000 %
b10000000000 3
b11000000000 <
1!
b10000000000 )
b11000000000 *
b1001 +
b1000000000 6
b1100000000 ?
#105
0!
#110
b1010 #
b100000000000 $
b110000000000 %
b100000000000 3
b110000000000 <
1!
b100000000000 )
b110000000000 *
b1010 +
b10000000000 6
b11000000000 ?
#115
0!
#120
b1011 #
b1000000000000 $
b1100000000000 %
b1000000000000 3
b1100000000000 <
1!
b1000000000000 )
b1100000000000 *
b1011 +
b100000000000 6
b110000000000 ?
#125
0!
#130
b1100 #
b10000000000000 $
b11000000000000 %
b10000000000000 3
b11000000000000 <
1!
b10000000000000 )
b11000000000000 *
b1100 +
b1000000000000 6
b1100000000000 ?
#135
0!
#140
b1101 #
b100000000000000 $
b110000000000000 %
b100000000000000 3
b110000000000000 <
1!
b100000000000000 )
b110000000000000 *
b1101 +
b10000000000000 6
b11000000000000 ?
#145
0!
#150
b1110 #
b1000000000000000 $
b1100000000000000 %
b1000000000000000 3
b1100000000000000 <
1!
b1000000000000000 )
b1100000000000000 *
b1110 +
b100000000000000 6
b110000000000000 ?
#155
0!
#160
b1111 #
b10000000000000000 $
b11000000000000000 %
b10000000000000000 3
b11000000000000000 <
1!
b10000000000000000 )
b11000000000000000 *
b1111 +
b1000000000000000 6
b1100000000000000 ?
#165
0!
#170
b10000 #
b100000000000000000 $
b110000000000000000 %
b100000000000000000 3
b110000000000000000 <
1!
b100000000000000000 )
b110000000000000000 *
b10000 +
b10000000000000000 6
b11000000000000000 ?
#175
0!
#180
b10001 #
b1000000000000000000 $
b1100000000000000000 %
b1000000000000000000 3
b1100000000000000000 <
1!
b1000000000000000000 )
b1100000000000000000 *
b10001 +
b100000000000000000 6
b110000000000000000 ?
#185
0!
#190
b10010 #
b10000000000000000000 $
b11000000000000000000 %
b10000000000000000000 3
b11000000000000000000 <
1!
b10000000000000000000 )
b11000000000000000000 *
b10010 +
b1000000000000000000 6
b1100000000000000000 ?
#195
0!
#200
b10011 #
b100000000000000000000 $
b110000000000000000000 %
b100000000000000000000 3
b110000000000000000000 <
1!
b100000000000000000000 )
b110000000000000000000 *
b10011 +
b10000000000000000000 6
b11000000000000000000 ?
#205
0!
#210
b10100 #
b1000000000000000000000 $
b1100000000000000000000 %
02
0;
1!
b1000000000000000000000 )
b1100000000000000000000 *
b10100 +
b100000000000000000000 6
b110000000000000000000 ?
